…
You can also group by multiple columns:

``` r
trafficstops %>% 
  group_by(county_name, drivers_race) %>%
  summarize(mean_age = mean(drivers_age, na.rm=TRUE))
```

    #> Warning: Factor `county_name` contains implicit NA, consider using
    #> `forcats::fct_explicit_na`

    #> Warning: Factor `drivers_race` contains implicit NA, consider using
    #> `forcats::fct_explicit_na`

    #> # A tibble: 361 x 3
    #> # Groups:   county_name [83]
    #>    county_name   drivers_race           mean_age
    #>    <fct>         <fct>                     <dbl>
    #>  1 Adams County  asian/pacific islander     55  
    #>  2 Adams County  black                      34.3
    #>  3 Adams County  other                      38.4
    #>  4 Adams County  white                      37.2
    #>  5 Adams County  <NA>                       19.8
    #>  6 Alcorn County asian/pacific islander     64  
    #>  7 Alcorn County black                      32.8
    #>  8 Alcorn County other                      29.6
    #>  9 Alcorn County white                      32.7
    #> 10 Alcorn County <NA>                       40.3
    #> # ... with 351 more rows

If we wanted to remove the line with `NA` we could insert a `filter()`
in the chain:

``` r
trafficstops %>%
  filter(!is.na(drivers_race)) %>% 
  group_by(county_name, drivers_race) %>%
  summarize(mean_age = mean(drivers_age, na.rm=TRUE))
```

    #> Warning: Factor `county_name` contains implicit NA, consider using
    #> `forcats::fct_explicit_na`

    #> # A tibble: 308 x 3
    #> # Groups:   county_name [83]
    #>    county_name   drivers_race           mean_age
    #>    <fct>         <fct>                     <dbl>
    #>  1 Adams County  asian/pacific islander     55  
    #>  2 Adams County  black                      34.3
    #>  3 Adams County  other                      38.4
    #>  4 Adams County  white                      37.2
    #>  5 Alcorn County asian/pacific islander     64  
    #>  6 Alcorn County black                      32.8
    #>  7 Alcorn County other                      29.6
    #>  8 Alcorn County white                      32.7
    #>  9 Amite County  black                      36.4
    #> 10 Amite County  other                      34.6
    #> # ... with 298 more rows
…
``` r
trafficstops %>%
  filter(!is.na(drivers_race)) %>% 
  group_by(county_name, drivers_race) %>%
  summarize(mean_age = mean(drivers_age, na.rm=TRUE),
            min_age = min(drivers_age, na.rm=TRUE))
```

    #> Warning: Factor `county_name` contains implicit NA, consider using
    #> `forcats::fct_explicit_na`

    #> # A tibble: 308 x 4
    #> # Groups:   county_name [83]
    #>    county_name   drivers_race           mean_age min_age
    #>    <fct>         <fct>                     <dbl>   <int>
    #>  1 Adams County  asian/pacific islander     55        55
    #>  2 Adams County  black                      34.3      16
    #>  3 Adams County  other                      38.4      19
    #>  4 Adams County  white                      37.2      16
    #>  5 Alcorn County asian/pacific islander     64        57
    #>  6 Alcorn County black                      32.8      16
    #>  7 Alcorn County other                      29.6      16
    #>  8 Alcorn County white                      32.7      15
    #>  9 Amite County  black                      36.4      16
    #> 10 Amite County  other                      34.6      19
    #> # ... with 298 more rows
…
In a first step we will use a previous `dplyr` command to count all the
trafficstops per county.

``` r
trafficstops %>% 
  group_by(county_name) %>% 
  summarise(n_stops = n())
```

    #> Warning: Factor `county_name` contains implicit NA, consider using
    #> `forcats::fct_explicit_na`

    #> # A tibble: 83 x 2
    #>    county_name      n_stops
    #>    <fct>              <int>
    #>  1 Adams County        3306
    #>  2 Alcorn County       7267
    #>  3 Amite County        4198
    #>  4 Attala County       6682
    #>  5 Benton County        337
    #>  6 Bolivar County      8270
    #>  7 Calhoun County      3377
    #>  8 Carroll County      2479
    #>  9 Chickasaw County    4500
    #> 10 Choctaw County      1439
    #> # ... with 73 more rows
…
